{
  "all": {
    "publicDir": "public",
    "publicOutputDir": "vite",
    "sourceCodeDir": "app/frontend",
    "watchAdditionalPaths": []
  },
  "development": {
    "autoBuild": true,
    "publicOutputDir": "vite-dev",
    "port": 3036
  },
  "test": {
    "autoBuild": true,
    "publicOutputDir": "vite-test"
  },
  "production": {
    "publicOutputDir": "vite"
  }
}